…
Some interesting things here: there are some entities that have multiple
data breaches listed, and we can see that California, Texas, and Florida
by far outweigh all the other states based off of number of incidents.
Lastly, there is a huge number of affected individuals as the max value,
so I will want to look at that data point.

``` r
data %>% 
  arrange(desc(num_affected)) %>%
  select(entity_name, state, num_affected, date)
```

    ## # A tibble: 3,714 x 4
    ##    entity_name                                     state num_affected date      
    ##    <fct>                                           <fct>        <dbl> <date>    
    ##  1 Anthem Inc.                                     IN        78800000 2015-02-13
    ##  2 Optum360, LLC                                   MN        11500000 2019-07-01
    ##  3 Premera Blue Cross                              WA        11000000 2015-03-17
    ##  4 Laboratory Corporation of America Holdings dba~ NC        10251784 2019-07-13
    ##  5 Excellus Health Plan, Inc.                      NY        10000000 2015-09-09
    ##  6 Community Health Systems Professional Services~ TN         6121158 2014-08-21
    ##  7 Science Applications International Corporation~ VA         4900000 2011-11-04
    ##  8 University of California, Los Angeles Health    CA         4500000 2015-07-17
    ##  9 Community Health Systems Professional Services~ TN         4500000 2014-08-20
    ## 10 Advocate Health and Hospitals Corporation, d/b~ IL         4029530 2013-08-23
    ## # ... with 3,704 more rows
…
data_long <- data_long %>% 
  pivot_longer(paperfilm:other_elec, 
               names_to = "loc") %>% 
  mutate(loc_val = value, 
         loc = as.factor(loc)) %>% 
  select(-value)

data_long
```

    ## # A tibble: 207,984 x 10
    ##    entity_name state entity_type num_affected date       assoc_present type 
    ##    <fct>       <fct> <fct>              <dbl> <date>     <fct>         <fct>
    ##  1 Prime Ther~ MN    Business A~         1863 2021-01-28 Yes           hack~
    ##  2 Prime Ther~ MN    Business A~         1863 2021-01-28 Yes           hack~
    ##  3 Prime Ther~ MN    Business A~         1863 2021-01-28 Yes           hack~
    ##  4 Prime Ther~ MN    Business A~         1863 2021-01-28 Yes           hack~
    ##  5 Prime Ther~ MN    Business A~         1863 2021-01-28 Yes           hack~
    ##  6 Prime Ther~ MN    Business A~         1863 2021-01-28 Yes           hack~
    ##  7 Prime Ther~ MN    Business A~         1863 2021-01-28 Yes           hack~
    ##  8 Prime Ther~ MN    Business A~         1863 2021-01-28 Yes           hack~
    ##  9 Prime Ther~ MN    Business A~         1863 2021-01-28 Yes           disp~
    ## 10 Prime Ther~ MN    Business A~         1863 2021-01-28 Yes           disp~
    ## # ... with 207,974 more rows, and 3 more variables: type_val <dbl>, loc <fct>,
    ## #   loc_val <dbl>

As mentioned above, this is a long data format, meaning that the
resultant dataset is *long*. However, it’s a bit too long; I will filter
out so that only entries that correspond to the proper breach
type/location values are present (both breach type and location = 1):

``` r
data_long <- data_long %>% 
  filter(type_val == 1 & loc_val == 1) %>% 
  select(-type_val, -loc_val)

data_long
```

    ## # A tibble: 4,704 x 8
    ##    entity_name state entity_type num_affected date       assoc_present type 
    ##    <fct>       <fct> <fct>              <dbl> <date>     <fct>         <fct>
    ##  1 Prime Ther~ MN    Business A~         1863 2021-01-28 Yes           unau~
    ##  2 Austin Hea~ TX    Healthcare~          600 2021-01-23 No            unau~
    ##  3 Public Edu~ AL    Health Plan         1683 2021-01-22 No            unau~
    ##  4 Hendrick H~ TX    Healthcare~       640436 2021-01-15 No            hack~
    ##  5 Froedtert ~ WI    Healthcare~          760 2021-01-15 No            unau~
    ##  6 Wisconsin ~ WI    Health Plan         1281 2021-01-15 Yes           unau~
    ##  7 Precision ~ TX    Healthcare~        20787 2021-01-12 No            hack~
    ##  8 Greater Ne~ MA    Healthcare~          696 2021-01-12 Yes           hack~
    ##  9 WeCare TLC  FL    Healthcare~         2340 2021-01-12 No            loss 
    ## 10 KR Perio, ~ FL    Healthcare~          500 2021-01-11 No            hack~
    ## # ... with 4,694 more rows, and 1 more variable: loc <fct>
…
``` r
library(broom)
breach_lm <- lm(log10_num ~ state + entity_type + assoc_present + type + loc,
                data = data_long)
breach_eval <- breach_lm %>% tidy() %>% 
  mutate_if(is.numeric, round, 6) %>% 
  filter(p.value < 0.05)

breach_eval
```

    ## # A tibble: 48 x 5
    ##    term        estimate std.error statistic  p.value
    ##    <chr>          <dbl>     <dbl>     <dbl>    <dbl>
    ##  1 (Intercept)    3.23      0.162     20.0  0       
    ##  2 stateAL        0.478     0.170      2.81 0.00491 
    ##  3 stateAR        0.565     0.167      3.39 0.000706
    ##  4 stateAZ        0.479     0.153      3.14 0.0017  
    ##  5 stateCA        0.403     0.142      2.84 0.00450 
    ##  6 stateCO        0.379     0.155      2.44 0.0147  
    ##  7 stateCT        0.465     0.158      2.95 0.00322 
    ##  8 stateDE        0.870     0.194      4.49 0.000007
    ##  9 stateFL        0.453     0.144      3.15 0.00167 
    ## 10 stateGA        0.571     0.151      3.77 0.000164
    ## # ... with 38 more rows
…
